…
```{r}
results_us_election_2016 %>% filter(!state %in% results$state) %>% 
  pull(state)
```
No polls were conducted in DC, Rhode Island, Alaska, and Wyoming because Democrats are sure to win in the first two and Republicans in the last two.

Because we can’t estimate the standard deviation for states with just one poll, we will estimate it as the median of the standard deviations estimated for states with more than one poll:
```{r}
results <- results %>%
  mutate(sd = ifelse(is.na(sd), median(results$sd, na.rm = TRUE), sd))
```

To make probabilistic arguments, we will use a Monte Carlo simulation. For each state, we apply the Bayesian approach to generate an election day $d$. We could construct the priors for each state based on recent history. However, to keep it simple, we assign a prior to each state that assumes we know nothing about what will happen. Since from election year to election year the results from a specific state don’t change that much, we will assign a standard deviation of 2% or $τ=0.02$. For now, we will assume, incorrectly, that the poll results from each state are independent. The code for the Bayesian calculation under these assumptions looks like this:
```{r}
#> # A tibble: 47 x 12
#>   state     avg      sd     n electoral_votes clinton trump others
#>   <chr>   <dbl>   <dbl> <int>           <int>   <dbl> <dbl>  <dbl>
#> 1 Alab… -0.149  2.53e-2     3               9    34.4  62.1    3.6
#> 2 Ariz… -0.0326 2.70e-2     9              11    45.1  48.7    6.2
#> 3 Arka… -0.151  9.90e-4     2               6    33.7  60.6    5.8
#> 4 Cali…  0.260  3.87e-2     5              55    61.7  31.6    6.7
#> 5 Colo…  0.0452 2.95e-2     7               9    48.2  43.3    8.6
#> # … with 42 more rows, and 4 more variables: sigma <dbl>, B <dbl>,
#> #   posterior_mean <dbl>, posterior_se <dbl>
```
…
